{"total": 1610, "offset": 0, "next": 5, "data": [{"paperId": "8e0be569ea77b8cb29bb0e8b031887630fe7a96c", "externalIds": {"MAG": "2342146255", "DBLP": "reference/ml/X17sy", "DOI": "10.1023/A:1010933404324", "CorpusId": 89141}, "title": "Random Forests", "venue": "Machine-mediated learning", "year": 2001, "authors": [{"authorId": "2423230", "name": "L. Breiman"}]}, {"paperId": "97f06ebaf88e428973692cb3594cee835fdb2acf", "externalIds": {"DBLP": "conf/mcs/LatinneDD01", "MAG": "1819522214", "DOI": "10.1007/3-540-48219-9_18", "CorpusId": 17329907}, "title": "Limiting the Number of Trees in Random Forests", "venue": "International Workshop on Multiple Classifier Systems", "year": 2001, "authors": [{"authorId": "2846526", "name": "Patrice Latinne"}, {"authorId": "3176329", "name": "O. Debeir"}, {"authorId": "2523641", "name": "C. Decaestecker"}]}, {"paperId": "6fa39e5bfa4ac109979ece1e264552d7a7951272", "externalIds": {"CorpusId": 446498}, "title": "Climatic Impact of Tropical Lowland Deforestation on Nearby Montane Cloud Forests", "venue": "", "year": 2001, "authors": [{"authorId": "39968393", "name": "R. Lawton"}, {"authorId": "15096129", "name": "U. Nair"}, {"authorId": "3180571", "name": "R. Pielke"}, {"authorId": "1742594", "name": "Ross M. Welch"}]}, {"paperId": "d6b4a27640c604e1073e6f3a860bf0635e33c4a3", "externalIds": {"MAG": "2019834426", "DOI": "10.1002/ldr.418", "CorpusId": 128542079}, "title": "Deforestation effects on vegetative regeneration and soil quality in tropical semi\u2010evergreen degraded and protected forests of Bangladesh", "venue": "", "year": 2001, "authors": [{"authorId": "2225652758", "name": "Degrad. Develop"}, {"authorId": "144369335", "name": "K. R. Islam"}, {"authorId": "2107703508", "name": "M. R. Ahmed"}, {"authorId": "87370920", "name": "M. Bhuiyan"}, {"authorId": "118079150", "name": "A. Badruddin"}, {"authorId": "41213512", "name": "H. Hall"}]}, {"paperId": "f4b30927828b40ec3cbb33c815571382e6a9cf22", "externalIds": {"MAG": "2249434578", "CorpusId": 131130489}, "title": "Landscape context and regional patterns in Arkansas' forests.", "venue": "", "year": 2001, "authors": [{"authorId": "20771169", "name": "V. Rudis"}]}]}
